[
    {
        "name": "Donaello",
        "id": 1975,
        "email": "turtles",
        "address": "turtles"
    },
    {
        "name": "Roope Ankka",
        "id": 1973,
        "email": "white",
        "address": "disney world, rahapajakatu"
    }
]